Total Height: 20px + 1px + 10px + 150px + 10px + 1px + 20px = 212px

Total Width: 20px + 1px + 10px + 400px + 10px + 1px + 20px = 462px

Browser Calculated Height: 1px + 10px + 150px + 10px + 1px = 172px

Browser Calculated Width: 1px + 10px + 400px + 10px + 1px = 422px